component_projects/tone_selector/simulation/qsim/tone_selector.msim.vcd
$comment
	File created using the following command:
		vcd file tone_selector.msim.vcd -direction
$end
$date
	Thu May 25 22:14:45 2023
$end
$version
	ModelSim Version 10.5b
$end
$timescale
	1ps
$end

$scope module tone_selector_vlg_vec_tst $end
$var reg 1 ! clk $end
$var reg 1 " rst $end
$var reg 4 # switches [3:0] $end
$var wire 1 $ out $end

$scope module i1 $end
$var wire 1 % gnd $end
$var wire 1 & vcc $end
$var wire 1 ' unknown $end
$var tri1 1 ( devclrn $end
$var tri1 1 ) devpor $end
$var tri1 1 * devoe $end
$var wire 1 + out~output_o $end
$var wire 1 , switches[0]~input_o $end
$var wire 1 - clk~input_o $end
$var wire 1 . tone_gen|Add0~9_sumout $end
$var wire 1 / rst~input_o $end
$var wire 1 0 tone_gen|Add0~2 $end
$var wire 1 1 tone_gen|Add0~29_sumout $end
$var wire 1 2 tone_gen|Add0~30 $end
$var wire 1 3 tone_gen|Add0~25_sumout $end
$var wire 1 4 tone_gen|Add0~26 $end
$var wire 1 5 tone_gen|Add0~21_sumout $end
$var wire 1 6 tone_gen|Add0~22 $end
$var wire 1 7 tone_gen|Add0~17_sumout $end
$var wire 1 8 tone_gen|Add0~18 $end
$var wire 1 9 tone_gen|Add0~13_sumout $end
$var wire 1 : tone_gen|LessThan0~0_combout $end
$var wire 1 ; tone_gen|Add0~14 $end
$var wire 1 < tone_gen|Add0~53_sumout $end
$var wire 1 = tone_gen|Add0~54 $end
$var wire 1 > tone_gen|Add0~49_sumout $end
$var wire 1 ? tone_gen|Add0~50 $end
$var wire 1 @ tone_gen|Add0~45_sumout $end
$var wire 1 A tone_gen|Add0~46 $end
$var wire 1 B tone_gen|Add0~41_sumout $end
$var wire 1 C tone_gen|Add0~42 $end
$var wire 1 D tone_gen|Add0~37_sumout $end
$var wire 1 E tone_gen|Add0~38 $end
$var wire 1 F tone_gen|Add0~33_sumout $end
$var wire 1 G tone_gen|LessThan0~1_combout $end
$var wire 1 H tone_gen|Add0~34 $end
$var wire 1 I tone_gen|Add0~101_sumout $end
$var wire 1 J tone_gen|Add0~102 $end
$var wire 1 K tone_gen|Add0~97_sumout $end
$var wire 1 L tone_gen|Add0~98 $end
$var wire 1 M tone_gen|Add0~93_sumout $end
$var wire 1 N tone_gen|Add0~94 $end
$var wire 1 O tone_gen|Add0~89_sumout $end
$var wire 1 P tone_gen|Add0~90 $end
$var wire 1 Q tone_gen|Add0~85_sumout $end
$var wire 1 R tone_gen|Add0~86 $end
$var wire 1 S tone_gen|Add0~81_sumout $end
$var wire 1 T tone_gen|Add0~82 $end
$var wire 1 U tone_gen|Add0~77_sumout $end
$var wire 1 V tone_gen|Add0~78 $end
$var wire 1 W tone_gen|Add0~73_sumout $end
$var wire 1 X tone_gen|Add0~74 $end
$var wire 1 Y tone_gen|Add0~69_sumout $end
$var wire 1 Z tone_gen|Add0~70 $end
$var wire 1 [ tone_gen|Add0~65_sumout $end
$var wire 1 \ tone_gen|Add0~66 $end
$var wire 1 ] tone_gen|Add0~61_sumout $end
$var wire 1 ^ tone_gen|Add0~62 $end
$var wire 1 _ tone_gen|Add0~57_sumout $end
$var wire 1 ` tone_gen|LessThan0~2_combout $end
$var wire 1 a tone_gen|LessThan0~3_combout $end
$var wire 1 b switches[3]~input_o $end
$var wire 1 c switches[1]~input_o $end
$var wire 1 d switches[2]~input_o $end
$var wire 1 e tone_gen|LessThan0~4_combout $end
$var wire 1 f tone_gen|LessThan0~5_combout $end
$var wire 1 g tone_gen|Add0~10 $end
$var wire 1 h tone_gen|Add0~5_sumout $end
$var wire 1 i tone_gen|Add0~6 $end
$var wire 1 j tone_gen|Add0~1_sumout $end
$var wire 1 k tone_gen|LessThan1~0_combout $end
$var wire 1 l tone_gen|LessThan1~1_combout $end
$var wire 1 m tone_gen|outclk~q $end
$var wire 1 n out~0_combout $end
$var wire 1 o tone_gen|counter [25] $end
$var wire 1 p tone_gen|counter [24] $end
$var wire 1 q tone_gen|counter [23] $end
$var wire 1 r tone_gen|counter [22] $end
$var wire 1 s tone_gen|counter [21] $end
$var wire 1 t tone_gen|counter [20] $end
$var wire 1 u tone_gen|counter [19] $end
$var wire 1 v tone_gen|counter [18] $end
$var wire 1 w tone_gen|counter [17] $end
$var wire 1 x tone_gen|counter [16] $end
$var wire 1 y tone_gen|counter [15] $end
$var wire 1 z tone_gen|counter [14] $end
$var wire 1 { tone_gen|counter [13] $end
$var wire 1 | tone_gen|counter [12] $end
$var wire 1 } tone_gen|counter [11] $end
$var wire 1 ~ tone_gen|counter [10] $end
$var wire 1 !! tone_gen|counter [9] $end
$var wire 1 "! tone_gen|counter [8] $end
$var wire 1 #! tone_gen|counter [7] $end
$var wire 1 $! tone_gen|counter [6] $end
$var wire 1 %! tone_gen|counter [5] $end
$var wire 1 &! tone_gen|counter [4] $end
$var wire 1 '! tone_gen|counter [3] $end
$var wire 1 (! tone_gen|counter [2] $end
$var wire 1 )! tone_gen|counter [1] $end
$var wire 1 *! tone_gen|counter [0] $end
$upscope $end
$upscope $end
$enddefinitions $end
#0
$dumpvars
0!
1"
b0 #
0$
0%
1&
x'
1(
1)
1*
0+
0,
0-
1.
1/
00
01
02
03
04
05
06
07
08
09
1:
0;
0<
0=
0>
0?
0@
0A
0B
0C
0D
0E
0F
1G
0H
0I
0J
0K
0L
0M
0N
0O
0P
0Q
0R
0S
0T
0U
0V
0W
0X
0Y
0Z
0[
0\
0]
0^
0_
1`
1a
0b
0c
0d
0e
1f
0g
0h
0i
0j
1k
0l
0m
0n
0*!
0)!
0(!
0'!
0&!
0%!
0$!
0#!
0"!
0!!
0~
0}
0|
0{
0z
0y
0x
0w
0v
0u
0t
0s
0r
0q
0p
0o
$end
#10000
1!
1-
#20000
0"
0!
0/
0-
#30000
1!
1-
#40000
0!
0-
#50000
1!
1-
#60000
0!
0-
#70000
1!
1-
#80000
0!
0-
#90000
1!
1-
#100000
0!
0-
#110000
1!
1-
#120000
b10 #
b11 #
0!
1,
1c
0-
0k
1e
0f
1l
#130000
1!
1-
1m
1*!
1k
0e
1g
0.
1n
1+
1f
1$
1h
0l
#140000
0!
0-
#150000
1!
1-
0m
0*!
0k
1e
0g
1.
0n
0+
0f
0$
0h
1l
#160000
0!
0-
#170000
1!
1-
1m
1*!
1k
0e
1g
0.
1n
1+
1f
1$
1h
0l
#180000
0!
0-
#190000
1!
1-
0m
0*!
0k
1e
0g
1.
0n
0+
0f
0$
0h
1l
#200000
0!
0-
#210000
1!
1-
1m
1*!
1k
0e
1g
0.
1n
1+
1f
1$
1h
0l
#220000
0!
0-
#230000
1!
1-
0m
0*!
0k
1e
0g
1.
0n
0+
0f
0$
0h
1l
#240000
b111 #
b101 #
0!
0c
1d
0-
#250000
1!
1-
1m
1*!
1k
1g
0.
1n
1+
1$
1h
0l
#260000
0!
0-
#270000
1!
1-
0m
1)!
0*!
0e
0g
1i
1.
0h
0n
0+
0i
1f
0$
1h
1j
0j
#280000
0!
0-
#290000
1!
1-
0)!
0k
1e
0h
0f
1l
#300000
0!
0-
#310000
1!
1-
1m
1*!
1k
1g
0.
1n
1+
1$
1h
0l
#320000
0!
0-
#330000
1!
1-
0m
1)!
0*!
0e
0g
1i
1.
0h
0n
0+
0i
1f
0$
1h
1j
0j
#340000
0!
0-
#350000
1!
1-
0)!
0k
1e
0h
0f
1l
#360000
0!
0-
#370000
1!
1-
1m
1*!
1k
1g
0.
1n
1+
1$
1h
0l
#380000
b111 #
0!
1c
0-
0k
1l
#390000
1!
1-
1)!
0*!
1k
0g
1i
1.
0h
0i
1h
1j
0l
0j
#400000
0!
0-
#410000
1!
1-
0m
1*!
0e
1g
0.
0n
0+
1i
1f
0$
0h
1j
#420000
0!
0-
#430000
1!
1-
0)!
0*!
0k
1e
0g
0i
1.
1h
0f
0h
0j
1l
#440000
0!
0-
#450000
1!
1-
1m
1*!
1g
0.
1n
1+
1$
1h
#460000
0!
0-
#470000
1!
1-
1)!
0*!
1k
0g
1i
1.
0h
0i
1h
1j
0l
0j
#480000
0!
0-
#490000
1!
1-
0m
1*!
0e
1g
0.
0n
0+
1i
1f
0$
0h
1j
#500000
0!
0-
#510000
1!
1-
0)!
0*!
0k
1e
0g
0i
1.
1h
0f
0h
0j
1l
#520000
0!
0-
#530000
1!
1-
1m
1*!
1g
0.
1n
1+
1$
1h
#540000
0!
0-
#550000
b1111 #
b1011 #
b1001 #
1!
0c
0d
1b
1-
1)!
0*!
1k
0g
1i
1.
0h
0i
1h
1j
0l
0j
#560000
0!
0-
#570000
1!
1-
0m
1*!
1g
0.
0n
0+
1i
0$
0h
1j
#580000
0!
0-
#590000
1!
1-
1(!
0)!
0*!
0k
0e
0g
0i
10
1.
1h
0j
00
1f
0h
1j
11
01
#600000
0!
0-
#610000
1!
1-
0(!
1e
1l
0j
0f
#620000
0!
0-
#630000
1!
1-
1m
1*!
1g
0.
1n
1+
1$
1h
#640000
0!
0-
#650000
1!
1-
1)!
0*!
1k
0g
1i
1.
0h
0i
1h
1j
0l
0j
#660000
0!
0-
#670000
1!
1-
0m
1*!
1g
0.
0n
0+
1i
0$
0h
1j
#680000
0!
0-
#690000
1!
1-
1(!
0)!
0*!
0k
0e
0g
0i
10
1.
1h
0j
00
1f
0h
1j
11
01
#700000
0!
0-
#710000
1!
1-
0(!
1e
1l
0j
0f
#720000
0!
0-
#730000
1!
1-
1m
1*!
1g
0.
1n
1+
1$
1h
#740000
0!
0-
#750000
1!
1-
1)!
0*!
1k
0g
1i
1.
0h
0i
1h
1j
0l
0j
#760000
0!
0-
#770000
1!
1-
0m
1*!
1g
0.
0n
0+
1i
0$
0h
1j
#780000
0!
0-
#790000
b1011 #
1!
1c
1-
1(!
0)!
0*!
0k
0g
0i
10
1.
1h
0j
00
0h
1j
11
01
#800000
0!
0-
#810000
1!
1-
1*!
0e
1g
0.
1f
1h
#820000
0!
0-
#830000
1!
1-
0(!
0*!
1e
0g
1.
1l
0j
0f
0h
#840000
0!
0-
#850000
1!
1-
1m
1*!
1g
0.
1n
1+
1$
1h
#860000
0!
0-
#870000
1!
1-
1)!
0*!
0g
1i
1.
0h
0i
1h
1j
0j
#880000
0!
0-
#890000
1!
1-
1*!
1k
1g
0.
1i
0h
0l
1j
#900000
0!
0-
#910000
1!
1-
0m
1(!
0)!
0*!
0k
0g
0i
10
1.
1h
0j
0n
0+
00
0$
0h
1j
11
01
#920000
0!
0-
#930000
1!
1-
1*!
0e
1g
0.
1f
1h
#940000
0!
0-
#950000
1!
1-
0(!
0*!
1e
0g
1.
1l
0j
0f
0h
#960000
0!
0-
#970000
1!
1-
1m
1*!
1g
0.
1n
1+
1$
1h
#980000
0!
0-
#990000
1!
1-
1)!
0*!
0g
1i
1.
0h
0i
1h
1j
0j
#1000000
0!
0-
#1010000
1!
1-
1*!
1k
1g
0.
1i
0h
0l
1j
#1020000
0!
0-
#1030000
1!
1-
0m
1(!
0)!
0*!
0k
0g
0i
10
1.
1h
0j
0n
0+
00
0$
0h
1j
11
01
#1040000
0!
0-
#1050000
1!
1-
1*!
0e
1g
0.
1f
1h
#1060000
0!
0-
#1070000
1!
1-
0(!
0*!
1e
0g
1.
1l
0j
0f
0h
#1080000
0!
0-
#1090000
1!
1-
1m
1*!
1g
0.
1n
1+
1$
1h
#1100000
0!
0-
#1110000
1!
1-
1)!
0*!
0g
1i
1.
0h
0i
1h
1j
0j
#1120000
0!
0-
#1130000
1!
1-
1*!
1k
1g
0.
1i
0h
0l
1j
#1140000
0!
0-
#1150000
1!
1-
0m
1(!
0)!
0*!
0k
0g
0i
10
1.
1h
0j
0n
0+
00
0$
0h
1j
11
01
#1160000
0!
0-
#1170000
1!
1-
1*!
0e
1g
0.
1f
1h
#1180000
0!
0-
#1190000
1!
1-
0(!
0*!
1e
0g
1.
1l
0j
0f
0h
#1200000
b1111 #
b1101 #
0!
0c
1d
0-
#1210000
1!
1-
1m
1*!
1g
0.
1n
1+
1$
1h
#1220000
0!
0-
#1230000
1!
1-
1)!
0*!
0g
1i
1.
0h
0i
1h
1j
0j
#1240000
0!
0-
#1250000
1!
1-
1*!
1g
0.
1i
0h
1j
#1260000
0!
0-
#1270000
1!
1-
1(!
0)!
0*!
0g
0i
10
1.
1h
0l
0j
00
0h
1j
11
01
#1280000
0!
0-
#1290000
1!
1-
0m
1*!
1g
0.
0n
0+
0$
1h
#1300000
0!
0-
#1310000
1!
1-
1)!
0*!
0g
1i
1.
0h
0i
10
1h
0j
00
1j
11
01
#1320000
0!
0-
#1330000
1!
1-
1*!
0e
1g
0.
1i
1f
0h
10
0j
11
#1340000
0!
0-
#1350000
1!
1-
0(!
0)!
0*!
1e
0g
0i
00
1.
1h
1l
1j
0f
0h
0j
01
#1360000
0!
0-
#1370000
1!
1-
1m
1*!
1g
0.
1n
1+
1$
1h
#1380000
0!
0-
#1390000
1!
1-
1)!
0*!
0g
1i
1.
0h
0i
1h
1j
0j
#1400000
0!
0-
#1410000
1!
1-
1*!
1g
0.
1i
0h
1j
#1420000
0!
0-
#1430000
1!
1-
1(!
0)!
0*!
0g
0i
10
1.
1h
0l
0j
00
0h
1j
11
01
#1440000
0!
0-
#1450000
1!
1-
0m
1*!
1g
0.
0n
0+
0$
1h
#1460000
0!
0-
#1470000
1!
1-
1)!
0*!
0g
1i
1.
0h
0i
10
1h
0j
00
1j
11
01
#1480000
0!
0-
#1490000
1!
1-
1*!
0e
1g
0.
1i
1f
0h
10
0j
11
#1500000
0!
0-
#1510000
1!
1-
0(!
0)!
0*!
1e
0g
0i
00
1.
1h
1l
1j
0f
0h
0j
01
#1520000
0!
0-
#1530000
1!
1-
1m
1*!
1g
0.
1n
1+
1$
1h
#1540000
0!
0-
#1550000
1!
1-
1)!
0*!
0g
1i
1.
0h
0i
1h
1j
0j
#1560000
0!
0-
#1570000
1!
1-
1*!
1g
0.
1i
0h
1j
#1580000
0!
0-
#1590000
1!
1-
1(!
0)!
0*!
0g
0i
10
1.
1h
0l
0j
00
0h
1j
11
01
#1600000
0!
0-
#1610000
1!
1-
0m
1*!
1g
0.
0n
0+
0$
1h
#1620000
0!
0-
#1630000
1!
1-
1)!
0*!
0g
1i
1.
0h
0i
10
1h
0j
00
1j
11
01
#1640000
0!
0-
#1650000
1!
1-
1*!
0e
1g
0.
1i
1f
0h
10
0j
11
#1660000
0!
0-
#1670000
1!
1-
0(!
0)!
0*!
1e
0g
0i
00
1.
1h
1l
1j
0f
0h
0j
01
#1680000
0!
0-
#1690000
1!
1-
1m
1*!
1g
0.
1n
1+
1$
1h
#1700000
0!
0-
#1710000
1!
1-
1)!
0*!
0g
1i
1.
0h
0i
1h
1j
0j
#1720000
0!
0-
#1730000
1!
1-
1*!
1g
0.
1i
0h
1j
#1740000
0!
0-
#1750000
1!
1-
1(!
0)!
0*!
0g
0i
10
1.
1h
0l
0j
00
0h
1j
11
01
#1760000
0!
0-
#1770000
1!
1-
0m
1*!
1g
0.
0n
0+
0$
1h
#1780000
b1111 #
0!
1c
0-
#1790000
1!
1-
1)!
0*!
0g
1i
1.
0h
0i
10
1h
0j
00
1j
11
01
#1800000
0!
0-
#1810000
1!
1-
1*!
0e
1g
0.
1i
1f
0h
10
0j
11
#1820000
0!
0-
#1830000
1!
1-
0(!
0)!
0*!
1e
0g
0i
00
1.
1h
1l
1j
0f
0h
0j
01
#1840000
0!
0-
#1850000
1!
1-
1m
1*!
1g
0.
1n
1+
1$
1h
#1860000
0!
0-
#1870000
1!
1-
1)!
0*!
0g
1i
1.
0h
0i
1h
1j
0j
#1880000
0!
0-
#1890000
1!
1-
1*!
1g
0.
1i
0h
1j
#1900000
0!
0-
#1910000
1!
1-
1(!
0)!
0*!
0g
0i
10
1.
1h
0l
0j
00
0h
1j
11
01
#1920000
0!
0-
#1930000
1!
1-
0m
1*!
1g
0.
0n
0+
0$
1h
#1940000
0!
0-
#1950000
1!
1-
1)!
0*!
0g
1i
1.
0h
0i
10
1h
0j
00
1j
11
01
#1960000
0!
0-
#1970000
1!
1-
1*!
0e
1g
0.
1i
1f
0h
10
0j
11
#1980000
0!
0-
#1990000
1!
1-
0(!
0)!
0*!
1e
0g
0i
00
1.
1h
1l
1j
0f
0h
0j
01
#2000000
0!
0-
#2010000
1!
1-
1m
1*!
1g
0.
1n
1+
1$
1h
#2020000
0!
0-
#2030000
1!
1-
1)!
0*!
0g
1i
1.
0h
0i
1h
1j
0j
#2040000
0!
0-
#2050000
1!
1-
1*!
1g
0.
1i
0h
1j
#2060000
0!
0-
#2070000
1!
1-
1(!
0)!
0*!
0g
0i
10
1.
1h
0l
0j
00
0h
1j
11
01
#2080000
0!
0-
#2090000
1!
1-
0m
1*!
1g
0.
0n
0+
0$
1h
#2100000
0!
0-
#2110000
1!
1-
1)!
0*!
0g
1i
1.
0h
0i
10
1h
0j
00
1j
11
01
#2120000
0!
0-
#2130000
1!
1-
1*!
0e
1g
0.
1i
1f
0h
10
0j
11
#2140000
0!
0-
#2150000
1!
1-
0(!
0)!
0*!
1e
0g
0i
00
1.
1h
1l
1j
0f
0h
0j
01
#2160000
0!
0-
#2170000
1!
1-
1m
1*!
1g
0.
1n
1+
1$
1h
#2180000
0!
0-
#2190000
1!
1-
1)!
0*!
0g
1i
1.
0h
0i
1h
1j
0j
#2200000
0!
0-
#2210000
1!
1-
1*!
1g
0.
1i
0h
1j
#2220000
0!
0-
#2230000
1!
1-
1(!
0)!
0*!
0g
0i
10
1.
1h
0l
0j
00
0h
1j
11
01
#2240000
0!
0-
#2250000
1!
1-
0m
1*!
1g
0.
0n
0+
0$
1h
#2260000
0!
0-
#2270000
1!
1-
1)!
0*!
0g
1i
1.
0h
0i
10
1h
0j
00
1j
11
01
#2280000
0!
0-
#2290000
1!
1-
1*!
0e
1g
0.
1i
1f
0h
10
0j
11
#2300000
0!
0-
#2310000
1!
1-
0(!
0)!
0*!
1e
0g
0i
00
1.
1h
1l
1j
0f
0h
0j
01
#2320000
0!
0-
#2330000
1!
1-
1m
1*!
1g
0.
1n
1+
1$
1h
#2340000
0!
0-
#2350000
1!
1-
1)!
0*!
0g
1i
1.
0h
0i
1h
1j
0j
#2360000
0!
0-
#2370000
1!
1-
1*!
1g
0.
1i
0h
1j
#2380000
0!
0-
#2390000
1!
1-
1(!
0)!
0*!
0g
0i
10
1.
1h
0l
0j
00
0h
1j
11
01
#2400000
0!
0-
#2410000
1!
1-
0m
1*!
1g
0.
0n
0+
0$
1h
#2420000
0!
0-
#2430000
1!
1-
1)!
0*!
0g
1i
1.
0h
0i
10
1h
0j
00
1j
11
01
#2440000
0!
0-
#2450000
1!
1-
1*!
0e
1g
0.
1i
1f
0h
10
0j
11
#2460000
0!
0-
#2470000
1!
1-
0(!
0)!
0*!
1e
0g
0i
00
1.
1h
1l
1j
0f
0h
0j
01
#2480000
b1110 #
0!
0,
0-
#2490000
1!
1-
1m
1*!
1g
0.
1h
#2500000
0!
0-
#2510000
1!
1-
1)!
0*!
0g
1i
1.
0h
0i
1h
1j
0j
#2520000
0!
0-
#2530000
1!
1-
1*!
1g
0.
1i
0h
1j
#2540000
0!
0-
#2550000
1!
1-
1(!
0)!
0*!
0g
0i
10
1.
1h
0l
0j
00
0h
1j
11
01
#2560000
0!
0-
#2570000
1!
1-
0m
1*!
1g
0.
1h
#2580000
0!
0-
#2590000
1!
1-
1)!
0*!
0g
1i
1.
0h
0i
10
1h
0j
00
1j
11
01
#2600000
0!
0-
#2610000
1!
1-
1*!
0e
1g
0.
1i
1f
0h
10
0j
11
#2620000
0!
0-
#2630000
1!
1-
0(!
0)!
0*!
1e
0g
0i
00
1.
1h
1l
1j
0f
0h
0j
01
#2640000
0!
0-
#2650000
1!
1-
1m
1*!
1g
0.
1h
#2660000
0!
0-
#2670000
1!
1-
1)!
0*!
0g
1i
1.
0h
0i
1h
1j
0j
#2680000
0!
0-
#2690000
1!
1-
1*!
1g
0.
1i
0h
1j
#2700000
0!
0-
#2710000
1!
1-
1(!
0)!
0*!
0g
0i
10
1.
1h
0l
0j
00
0h
1j
11
01
#2720000
0!
0-
#2730000
1!
1-
0m
1*!
1g
0.
1h
#2740000
0!
0-
#2750000
1!
1-
1)!
0*!
0g
1i
1.
0h
0i
10
1h
0j
00
1j
11
01
#2760000
0!
0-
#2770000
1!
1-
1*!
0e
1g
0.
1i
1f
0h
10
0j
11
#2780000
0!
0-
#2790000
1!
1-
0(!
0)!
0*!
1e
0g
0i
00
1.
1h
1l
1j
0f
0h
0j
01
