component_projects/tone_selector/simulation/qsim/tone_selector.msim.vcd
$comment
	File created using the following command:
		vcd file tone_selector.msim.vcd -direction
$end
$date
	Fri May 26 21:14:04 2023
$end
$version
	ModelSim Version 10.5b
$end
$timescale
	1ps
$end

$scope module tone_selector_vlg_vec_tst $end
$var reg 1 ! clk $end
$var reg 1 " rst $end
$var reg 4 # switches [3:0] $end
$var wire 1 $ out $end

$scope module i1 $end
$var wire 1 % gnd $end
$var wire 1 & vcc $end
$var wire 1 ' unknown $end
$var tri1 1 ( devclrn $end
$var tri1 1 ) devpor $end
$var tri1 1 * devoe $end
$var wire 1 + out~output_o $end
$var wire 1 , switches[0]~input_o $end
$var wire 1 - clk~input_o $end
$var wire 1 . tone_gen|Add0~125_sumout $end
$var wire 1 / rst~input_o $end
$var wire 1 0 switches[3]~input_o $end
$var wire 1 1 switches[2]~input_o $end
$var wire 1 2 switches[1]~input_o $end
$var wire 1 3 tone_gen|LessThan0~5_combout $end
$var wire 1 4 tone_gen|Add0~2 $end
$var wire 1 5 tone_gen|Add0~41_sumout $end
$var wire 1 6 tone_gen|Add0~42 $end
$var wire 1 7 tone_gen|Add0~37_sumout $end
$var wire 1 8 tone_gen|Add0~38 $end
$var wire 1 9 tone_gen|Add0~33_sumout $end
$var wire 1 : tone_gen|Add0~34 $end
$var wire 1 ; tone_gen|Add0~29_sumout $end
$var wire 1 < tone_gen|Add0~30 $end
$var wire 1 = tone_gen|Add0~25_sumout $end
$var wire 1 > tone_gen|Add0~26 $end
$var wire 1 ? tone_gen|Add0~21_sumout $end
$var wire 1 @ tone_gen|LessThan0~1_combout $end
$var wire 1 A tone_gen|Add0~22 $end
$var wire 1 B tone_gen|Add0~65_sumout $end
$var wire 1 C tone_gen|Add0~66 $end
$var wire 1 D tone_gen|Add0~61_sumout $end
$var wire 1 E tone_gen|Add0~62 $end
$var wire 1 F tone_gen|Add0~57_sumout $end
$var wire 1 G tone_gen|Add0~58 $end
$var wire 1 H tone_gen|Add0~69_sumout $end
$var wire 1 I tone_gen|Add0~70 $end
$var wire 1 J tone_gen|Add0~53_sumout $end
$var wire 1 K tone_gen|Add0~54 $end
$var wire 1 L tone_gen|Add0~49_sumout $end
$var wire 1 M tone_gen|Add0~50 $end
$var wire 1 N tone_gen|Add0~45_sumout $end
$var wire 1 O tone_gen|LessThan0~2_combout $end
$var wire 1 P tone_gen|Add0~46 $end
$var wire 1 Q tone_gen|Add0~113_sumout $end
$var wire 1 R tone_gen|Add0~114 $end
$var wire 1 S tone_gen|Add0~109_sumout $end
$var wire 1 T tone_gen|Add0~110 $end
$var wire 1 U tone_gen|Add0~105_sumout $end
$var wire 1 V tone_gen|Add0~106 $end
$var wire 1 W tone_gen|Add0~101_sumout $end
$var wire 1 X tone_gen|Add0~102 $end
$var wire 1 Y tone_gen|Add0~97_sumout $end
$var wire 1 Z tone_gen|Add0~98 $end
$var wire 1 [ tone_gen|Add0~93_sumout $end
$var wire 1 \ tone_gen|Add0~94 $end
$var wire 1 ] tone_gen|Add0~89_sumout $end
$var wire 1 ^ tone_gen|Add0~90 $end
$var wire 1 _ tone_gen|Add0~85_sumout $end
$var wire 1 ` tone_gen|Add0~86 $end
$var wire 1 a tone_gen|Add0~81_sumout $end
$var wire 1 b tone_gen|Add0~82 $end
$var wire 1 c tone_gen|Add0~77_sumout $end
$var wire 1 d tone_gen|Add0~78 $end
$var wire 1 e tone_gen|Add0~73_sumout $end
$var wire 1 f tone_gen|LessThan0~3_combout $end
$var wire 1 g tone_gen|LessThan0~4_combout $end
$var wire 1 h tone_gen|LessThan0~6_combout $end
$var wire 1 i tone_gen|Add0~126 $end
$var wire 1 j tone_gen|Add0~121_sumout $end
$var wire 1 k tone_gen|Add0~122 $end
$var wire 1 l tone_gen|Add0~117_sumout $end
$var wire 1 m tone_gen|Add0~118 $end
$var wire 1 n tone_gen|Add0~17_sumout $end
$var wire 1 o tone_gen|Add0~18 $end
$var wire 1 p tone_gen|Add0~13_sumout $end
$var wire 1 q tone_gen|Add0~14 $end
$var wire 1 r tone_gen|Add0~9_sumout $end
$var wire 1 s tone_gen|Add0~10 $end
$var wire 1 t tone_gen|Add0~5_sumout $end
$var wire 1 u tone_gen|Add0~6 $end
$var wire 1 v tone_gen|Add0~1_sumout $end
$var wire 1 w tone_gen|LessThan0~0_combout $end
$var wire 1 x tone_gen|LessThan1~0_combout $end
$var wire 1 y tone_gen|LessThan1~1_combout $end
$var wire 1 z tone_gen|outclk~q $end
$var wire 1 { out~0_combout $end
$var wire 1 | tone_gen|counter [31] $end
$var wire 1 } tone_gen|counter [30] $end
$var wire 1 ~ tone_gen|counter [29] $end
$var wire 1 !! tone_gen|counter [28] $end
$var wire 1 "! tone_gen|counter [27] $end
$var wire 1 #! tone_gen|counter [26] $end
$var wire 1 $! tone_gen|counter [25] $end
$var wire 1 %! tone_gen|counter [24] $end
$var wire 1 &! tone_gen|counter [23] $end
$var wire 1 '! tone_gen|counter [22] $end
$var wire 1 (! tone_gen|counter [21] $end
$var wire 1 )! tone_gen|counter [20] $end
$var wire 1 *! tone_gen|counter [19] $end
$var wire 1 +! tone_gen|counter [18] $end
$var wire 1 ,! tone_gen|counter [17] $end
$var wire 1 -! tone_gen|counter [16] $end
$var wire 1 .! tone_gen|counter [15] $end
$var wire 1 /! tone_gen|counter [14] $end
$var wire 1 0! tone_gen|counter [13] $end
$var wire 1 1! tone_gen|counter [12] $end
$var wire 1 2! tone_gen|counter [11] $end
$var wire 1 3! tone_gen|counter [10] $end
$var wire 1 4! tone_gen|counter [9] $end
$var wire 1 5! tone_gen|counter [8] $end
$var wire 1 6! tone_gen|counter [7] $end
$var wire 1 7! tone_gen|counter [6] $end
$var wire 1 8! tone_gen|counter [5] $end
$var wire 1 9! tone_gen|counter [4] $end
$var wire 1 :! tone_gen|counter [3] $end
$var wire 1 ;! tone_gen|counter [2] $end
$var wire 1 <! tone_gen|counter [1] $end
$var wire 1 =! tone_gen|counter [0] $end
$upscope $end
$upscope $end
$enddefinitions $end
#0
$dumpvars
0!
1"
b0 #
0$
0%
1&
x'
1(
1)
1*
0+
0,
0-
1.
1/
00
01
02
03
04
05
06
07
08
09
0:
0;
0<
0=
0>
0?
1@
0A
0B
0C
0D
0E
0F
0G
0H
0I
0J
0K
0L
0M
0N
1O
0P
0Q
0R
0S
0T
0U
0V
0W
0X
0Y
0Z
0[
0\
0]
0^
0_
0`
0a
0b
0c
0d
0e
1f
1g
1h
0i
0j
0k
0l
0m
0n
0o
0p
0q
0r
0s
0t
0u
0v
1w
0x
0y
0z
0{
0=!
0<!
0;!
0:!
09!
08!
07!
06!
05!
04!
03!
02!
01!
00!
0/!
0.!
0-!
0,!
0+!
0*!
0)!
0(!
0'!
0&!
0%!
0$!
0#!
0"!
0!!
0~
0}
0|
$end
#10000
1!
1-
#20000
0"
0!
0/
0-
#30000
1!
1-
#40000
0!
0-
#50000
1!
1-
#60000
0!
0-
#70000
1!
1-
#80000
0!
0-
#90000
1!
1-
#100000
0!
0-
#110000
1!
1-
#120000
b10 #
b11 #
0!
1,
12
0-
1x
13
0h
1y
#130000
1!
1-
1z
1=!
0x
03
1i
0.
1{
1+
1h
1$
1j
0y
#140000
0!
0-
#150000
1!
1-
0z
0=!
1x
13
0i
1.
0{
0+
0h
0$
0j
1y
#160000
0!
0-
#170000
1!
1-
1z
1=!
0x
03
1i
0.
1{
1+
1h
1$
1j
0y
#180000
0!
0-
#190000
1!
1-
0z
0=!
1x
13
0i
1.
0{
0+
0h
0$
0j
1y
#200000
0!
0-
#210000
1!
1-
1z
1=!
0x
03
1i
0.
1{
1+
1h
1$
1j
0y
#220000
0!
0-
#230000
1!
1-
0z
0=!
1x
13
0i
1.
0{
0+
0h
0$
0j
1y
#240000
b111 #
b101 #
0!
02
11
0-
#250000
1!
1-
1z
1=!
0x
1i
0.
1{
1+
1$
1j
0y
#260000
0!
0-
#270000
1!
1-
0z
1<!
0=!
03
0i
1k
1.
0j
0{
0+
0k
1h
0$
1j
1l
0l
#280000
0!
0-
#290000
1!
1-
0<!
1x
13
0j
0h
1y
#300000
0!
0-
#310000
1!
1-
1z
1=!
0x
1i
0.
1{
1+
1$
1j
0y
#320000
0!
0-
#330000
1!
1-
0z
1<!
0=!
03
0i
1k
1.
0j
0{
0+
0k
1h
0$
1j
1l
0l
#340000
0!
0-
#350000
1!
1-
0<!
1x
13
0j
0h
1y
#360000
0!
0-
#370000
1!
1-
1z
1=!
0x
1i
0.
1{
1+
1$
1j
0y
#380000
b111 #
0!
12
0-
1x
1y
#390000
1!
1-
1<!
0=!
0x
0i
1k
1.
0j
0k
1j
1l
0y
0l
#400000
0!
0-
#410000
1!
1-
0z
1=!
03
1i
0.
0{
0+
1k
1h
0$
0j
1l
#420000
0!
0-
#430000
1!
1-
0<!
0=!
1x
13
0i
0k
1.
1j
0h
0j
0l
1y
#440000
0!
0-
#450000
1!
1-
1z
1=!
1i
0.
1{
1+
1$
1j
#460000
0!
0-
#470000
1!
1-
1<!
0=!
0x
0i
1k
1.
0j
0k
1j
1l
0y
0l
#480000
0!
0-
#490000
1!
1-
0z
1=!
03
1i
0.
0{
0+
1k
1h
0$
0j
1l
#500000
0!
0-
#510000
1!
1-
0<!
0=!
1x
13
0i
0k
1.
1j
0h
0j
0l
1y
#520000
0!
0-
#530000
1!
1-
1z
1=!
1i
0.
1{
1+
1$
1j
#540000
0!
0-
#550000
b1111 #
b1011 #
b1001 #
1!
02
01
10
1-
1<!
0=!
0x
0i
1k
1.
0j
0k
1j
1l
0y
0l
#560000
0!
0-
#570000
1!
1-
0z
1=!
1i
0.
0{
0+
1k
0$
0j
1l
#580000
0!
0-
#590000
1!
1-
1;!
0<!
0=!
03
0i
0k
1m
1.
1j
0l
0m
1h
0j
1l
1n
0n
#600000
0!
0-
#610000
1!
1-
0;!
1x
13
0l
0h
1y
#620000
0!
0-
#630000
1!
1-
1z
1=!
1i
0.
1{
1+
1$
1j
#640000
0!
0-
#650000
1!
1-
1<!
0=!
0x
0i
1k
1.
0j
0k
1j
1l
0y
0l
#660000
0!
0-
#670000
1!
1-
0z
1=!
1i
0.
0{
0+
1k
0$
0j
1l
#680000
0!
0-
#690000
1!
1-
1;!
0<!
0=!
03
0i
0k
1m
1.
1j
0l
0m
1h
0j
1l
1n
0n
#700000
0!
0-
#710000
1!
1-
0;!
1x
13
0l
0h
1y
#720000
0!
0-
#730000
1!
1-
1z
1=!
1i
0.
1{
1+
1$
1j
#740000
0!
0-
#750000
1!
1-
1<!
0=!
0x
0i
1k
1.
0j
0k
1j
1l
0y
0l
#760000
0!
0-
#770000
1!
1-
0z
1=!
1i
0.
0{
0+
1k
0$
0j
1l
#780000
0!
0-
#790000
b1011 #
1!
12
1-
1;!
0<!
0=!
0i
0k
1m
1.
1j
0l
0m
0j
1l
1n
0n
#800000
0!
0-
#810000
1!
1-
1=!
03
1i
0.
1h
1j
#820000
0!
0-
#830000
1!
1-
0;!
0=!
1x
13
0i
1.
0l
0h
0j
1y
#840000
0!
0-
#850000
1!
1-
1z
1=!
1i
0.
1{
1+
1$
1j
#860000
0!
0-
#870000
1!
1-
1<!
0=!
0i
1k
1.
0j
0k
1j
1l
0l
#880000
0!
0-
#890000
1!
1-
1=!
0x
1i
0.
1k
0j
0y
1l
#900000
0!
0-
#910000
1!
1-
0z
1;!
0<!
0=!
0i
0k
1m
1.
1j
0l
0{
0+
0m
0$
0j
1l
1n
0n
#920000
0!
0-
#930000
1!
1-
1=!
03
1i
0.
1h
1j
#940000
0!
0-
#950000
1!
1-
0;!
0=!
1x
13
0i
1.
0l
0h
0j
1y
#960000
0!
0-
#970000
1!
1-
1z
1=!
1i
0.
1{
1+
1$
1j
#980000
0!
0-
#990000
1!
1-
1<!
0=!
0i
1k
1.
0j
0k
1j
1l
0l
#1000000
0!
0-
#1010000
1!
1-
1=!
0x
1i
0.
1k
0j
0y
1l
#1020000
0!
0-
#1030000
1!
1-
0z
1;!
0<!
0=!
0i
0k
1m
1.
1j
0l
0{
0+
0m
0$
0j
1l
1n
0n
#1040000
0!
0-
#1050000
1!
1-
1=!
03
1i
0.
1h
1j
#1060000
0!
0-
#1070000
1!
1-
0;!
0=!
1x
13
0i
1.
0l
0h
0j
1y
#1080000
0!
0-
#1090000
1!
1-
1z
1=!
1i
0.
1{
1+
1$
1j
#1100000
0!
0-
#1110000
1!
1-
1<!
0=!
0i
1k
1.
0j
0k
1j
1l
0l
#1120000
0!
0-
#1130000
1!
1-
1=!
0x
1i
0.
1k
0j
0y
1l
#1140000
0!
0-
#1150000
1!
1-
0z
1;!
0<!
0=!
0i
0k
1m
1.
1j
0l
0{
0+
0m
0$
0j
1l
1n
0n
#1160000
0!
0-
#1170000
1!
1-
1=!
03
1i
0.
1h
1j
#1180000
0!
0-
#1190000
1!
1-
0;!
0=!
1x
13
0i
1.
0l
0h
0j
1y
#1200000
b1111 #
b1101 #
0!
02
11
0-
#1210000
1!
1-
1z
1=!
1i
0.
1{
1+
1$
1j
#1220000
0!
0-
#1230000
1!
1-
1<!
0=!
0i
1k
1.
0j
0k
1j
1l
0l
#1240000
0!
0-
#1250000
1!
1-
1=!
0x
1i
0.
1k
0j
0y
1l
#1260000
0!
0-
#1270000
1!
1-
0z
1;!
0<!
0=!
0i
0k
1m
1.
1j
0l
0{
0+
0m
0$
0j
1l
1n
0n
#1280000
0!
0-
#1290000
1!
1-
1=!
1i
0.
1j
#1300000
0!
0-
#1310000
1!
1-
1<!
0=!
03
0i
1k
1.
0j
0k
1m
1h
1j
0l
0m
1l
1n
0n
#1320000
0!
0-
#1330000
1!
1-
0;!
0<!
1x
13
0j
0l
0h
1y
#1340000
0!
0-
#1350000
1!
1-
1z
1=!
1i
0.
1{
1+
1$
1j
#1360000
0!
0-
#1370000
1!
1-
1<!
0=!
0i
1k
1.
0j
0k
1j
1l
0l
#1380000
0!
0-
#1390000
1!
1-
1=!
0x
1i
0.
1k
0j
0y
1l
#1400000
0!
0-
#1410000
1!
1-
0z
1;!
0<!
0=!
0i
0k
1m
1.
1j
0l
0{
0+
0m
0$
0j
1l
1n
0n
#1420000
0!
0-
#1430000
1!
1-
1=!
1i
0.
1j
#1440000
0!
0-
#1450000
1!
1-
1<!
0=!
03
0i
1k
1.
0j
0k
1m
1h
1j
0l
0m
1l
1n
0n
#1460000
0!
0-
#1470000
1!
1-
0;!
0<!
1x
13
0j
0l
0h
1y
#1480000
0!
0-
#1490000
1!
1-
1z
1=!
1i
0.
1{
1+
1$
1j
#1500000
0!
0-
#1510000
1!
1-
1<!
0=!
0i
1k
1.
0j
0k
1j
1l
0l
#1520000
0!
0-
#1530000
1!
1-
1=!
0x
1i
0.
1k
0j
0y
1l
#1540000
0!
0-
#1550000
1!
1-
0z
1;!
0<!
0=!
0i
0k
1m
1.
1j
0l
0{
0+
0m
0$
0j
1l
1n
0n
#1560000
0!
0-
#1570000
1!
1-
1=!
1i
0.
1j
#1580000
0!
0-
#1590000
1!
1-
1<!
0=!
03
0i
1k
1.
0j
0k
1m
1h
1j
0l
0m
1l
1n
0n
#1600000
0!
0-
#1610000
1!
1-
0;!
0<!
1x
13
0j
0l
0h
1y
#1620000
0!
0-
#1630000
1!
1-
1z
1=!
1i
0.
1{
1+
1$
1j
#1640000
0!
0-
#1650000
1!
1-
1<!
0=!
0i
1k
1.
0j
0k
1j
1l
0l
#1660000
0!
0-
#1670000
1!
1-
1=!
0x
1i
0.
1k
0j
0y
1l
#1680000
0!
0-
#1690000
1!
1-
0z
1;!
0<!
0=!
0i
0k
1m
1.
1j
0l
0{
0+
0m
0$
0j
1l
1n
0n
#1700000
0!
0-
#1710000
1!
1-
1=!
1i
0.
1j
#1720000
0!
0-
#1730000
1!
1-
1<!
0=!
03
0i
1k
1.
0j
0k
1m
1h
1j
0l
0m
1l
1n
0n
#1740000
0!
0-
#1750000
1!
1-
0;!
0<!
1x
13
0j
0l
0h
1y
#1760000
0!
0-
#1770000
1!
1-
1z
1=!
1i
0.
1{
1+
1$
1j
#1780000
b1111 #
0!
12
0-
#1790000
1!
1-
1<!
0=!
0i
1k
1.
0j
0k
1j
1l
0l
#1800000
0!
0-
#1810000
1!
1-
1=!
1i
0.
1k
0j
1l
#1820000
0!
0-
#1830000
1!
1-
1;!
0<!
0=!
0x
0i
0k
1m
1.
1j
0l
0m
0j
1l
1n
0y
0n
#1840000
0!
0-
#1850000
1!
1-
0z
1=!
1i
0.
0{
0+
0$
1j
#1860000
0!
0-
#1870000
1!
1-
1<!
0=!
0i
1k
1.
0j
0k
1m
1j
0l
0m
1l
1n
0n
#1880000
0!
0-
#1890000
1!
1-
1=!
03
1i
0.
1k
1h
0j
1m
0l
1n
#1900000
0!
0-
#1910000
1!
1-
0;!
0<!
0=!
1x
13
0i
0k
0m
1.
1j
1l
0h
0j
0l
0n
1y
#1920000
0!
0-
#1930000
1!
1-
1z
1=!
1i
0.
1{
1+
1$
1j
#1940000
0!
0-
#1950000
1!
1-
1<!
0=!
0i
1k
1.
0j
0k
1j
1l
0l
#1960000
0!
0-
#1970000
1!
1-
1=!
1i
0.
1k
0j
1l
#1980000
0!
0-
#1990000
1!
1-
1;!
0<!
0=!
0x
0i
0k
1m
1.
1j
0l
0m
0j
1l
1n
0y
0n
#2000000
0!
0-
#2010000
1!
1-
0z
1=!
1i
0.
0{
0+
0$
1j
#2020000
0!
0-
#2030000
1!
1-
1<!
0=!
0i
1k
1.
0j
0k
1m
1j
0l
0m
1l
1n
0n
#2040000
0!
0-
#2050000
1!
1-
1=!
03
1i
0.
1k
1h
0j
1m
0l
1n
#2060000
0!
0-
#2070000
1!
1-
0;!
0<!
0=!
1x
13
0i
0k
0m
1.
1j
1l
0h
0j
0l
0n
1y
#2080000
0!
0-
#2090000
1!
1-
1z
1=!
1i
0.
1{
1+
1$
1j
#2100000
0!
0-
#2110000
1!
1-
1<!
0=!
0i
1k
1.
0j
0k
1j
1l
0l
#2120000
0!
0-
#2130000
1!
1-
1=!
1i
0.
1k
0j
1l
#2140000
0!
0-
#2150000
1!
1-
1;!
0<!
0=!
0x
0i
0k
1m
1.
1j
0l
0m
0j
1l
1n
0y
0n
#2160000
0!
0-
#2170000
1!
1-
0z
1=!
1i
0.
0{
0+
0$
1j
#2180000
0!
0-
#2190000
1!
1-
1<!
0=!
0i
1k
1.
0j
0k
1m
1j
0l
0m
1l
1n
0n
#2200000
0!
0-
#2210000
1!
1-
1=!
03
1i
0.
1k
1h
0j
1m
0l
1n
#2220000
0!
0-
#2230000
1!
1-
0;!
0<!
0=!
1x
13
0i
0k
0m
1.
1j
1l
0h
0j
0l
0n
1y
#2240000
0!
0-
#2250000
1!
1-
1z
1=!
1i
0.
1{
1+
1$
1j
#2260000
0!
0-
#2270000
1!
1-
1<!
0=!
0i
1k
1.
0j
0k
1j
1l
0l
#2280000
0!
0-
#2290000
1!
1-
1=!
1i
0.
1k
0j
1l
#2300000
0!
0-
#2310000
1!
1-
1;!
0<!
0=!
0x
0i
0k
1m
1.
1j
0l
0m
0j
1l
1n
0y
0n
#2320000
0!
0-
#2330000
1!
1-
0z
1=!
1i
0.
0{
0+
0$
1j
#2340000
0!
0-
#2350000
1!
1-
1<!
0=!
0i
1k
1.
0j
0k
1m
1j
0l
0m
1l
1n
0n
#2360000
0!
0-
#2370000
1!
1-
1=!
03
1i
0.
1k
1h
0j
1m
0l
1n
#2380000
0!
0-
#2390000
1!
1-
0;!
0<!
0=!
1x
13
0i
0k
0m
1.
1j
1l
0h
0j
0l
0n
1y
#2400000
0!
0-
#2410000
1!
1-
1z
1=!
1i
0.
1{
1+
1$
1j
#2420000
0!
0-
#2430000
1!
1-
1<!
0=!
0i
1k
1.
0j
0k
1j
1l
0l
#2440000
0!
0-
#2450000
1!
1-
1=!
1i
0.
1k
0j
1l
#2460000
0!
0-
#2470000
1!
1-
1;!
0<!
0=!
0x
0i
0k
1m
1.
1j
0l
0m
0j
1l
1n
0y
0n
#2480000
b1110 #
0!
0,
0-
0{
0+
0$
#2490000
1!
1-
0z
1=!
1i
0.
1j
#2500000
0!
0-
#2510000
1!
1-
1<!
0=!
0i
1k
1.
0j
0k
1m
1j
0l
0m
1l
1n
0n
#2520000
0!
0-
#2530000
1!
1-
1=!
03
1i
0.
1k
1h
0j
1m
0l
1n
#2540000
0!
0-
#2550000
1!
1-
0;!
0<!
0=!
1x
13
0i
0k
0m
1.
1j
1l
0h
0j
0l
0n
1y
#2560000
0!
0-
#2570000
1!
1-
1z
1=!
1i
0.
1j
#2580000
0!
0-
#2590000
1!
1-
1<!
0=!
0i
1k
1.
0j
0k
1j
1l
0l
#2600000
0!
0-
#2610000
1!
1-
1=!
1i
0.
1k
0j
1l
#2620000
0!
0-
#2630000
1!
1-
1;!
0<!
0=!
0x
0i
0k
1m
1.
1j
0l
0m
0j
1l
1n
0y
0n
#2640000
0!
0-
#2650000
1!
1-
0z
1=!
1i
0.
1j
#2660000
0!
0-
#2670000
1!
1-
1<!
0=!
0i
1k
1.
0j
0k
1m
1j
0l
0m
1l
1n
0n
#2680000
0!
0-
#2690000
1!
1-
1=!
03
1i
0.
1k
1h
0j
1m
0l
1n
#2700000
0!
0-
#2710000
1!
1-
0;!
0<!
0=!
1x
13
0i
0k
0m
1.
1j
1l
0h
0j
0l
0n
1y
#2720000
0!
0-
#2730000
1!
1-
1z
1=!
1i
0.
1j
#2740000
0!
0-
#2750000
1!
1-
1<!
0=!
0i
1k
1.
0j
0k
1j
1l
0l
#2760000
0!
0-
#2770000
1!
1-
1=!
1i
0.
1k
0j
1l
#2780000
0!
0-
#2790000
1!
1-
1;!
0<!
0=!
0x
0i
0k
1m
1.
1j
0l
0m
0j
1l
1n
0y
0n
