component_projects/led_flasher/simulation/qsim/led_flasher.msim.vcd
$comment
	File created using the following command:
		vcd file led_flasher.msim.vcd -direction
$end
$date
	Thu May 25 19:15:46 2023
$end
$version
	ModelSim Version 10.5b
$end
$timescale
	1ps
$end

$scope module led_flasher_vlg_vec_tst $end
$var reg 1 ! clk $end
$var reg 1 " rst $end
$var wire 1 # outLED [7] $end
$var wire 1 $ outLED [6] $end
$var wire 1 % outLED [5] $end
$var wire 1 & outLED [4] $end
$var wire 1 ' outLED [3] $end
$var wire 1 ( outLED [2] $end
$var wire 1 ) outLED [1] $end
$var wire 1 * outLED [0] $end

$scope module i1 $end
$var wire 1 + gnd $end
$var wire 1 , vcc $end
$var wire 1 - unknown $end
$var tri1 1 . devclrn $end
$var tri1 1 / devpor $end
$var tri1 1 0 devoe $end
$var wire 1 1 outLED[0]~output_o $end
$var wire 1 2 outLED[1]~output_o $end
$var wire 1 3 outLED[2]~output_o $end
$var wire 1 4 outLED[3]~output_o $end
$var wire 1 5 outLED[4]~output_o $end
$var wire 1 6 outLED[5]~output_o $end
$var wire 1 7 outLED[6]~output_o $end
$var wire 1 8 outLED[7]~output_o $end
$var wire 1 9 clk~input_o $end
$var wire 1 : rst~input_o $end
$var wire 1 ; led_flash_divider|counter[0]~0_combout $end
$var wire 1 < led_flash_divider|outclk~0_combout $end
$var wire 1 = led_flash_divider|outclk~q $end
$var wire 1 > decr~0_combout $end
$var wire 1 ? decr~q $end
$var wire 1 @ outLED~8_combout $end
$var wire 1 A outLED[7]~reg0_q $end
$var wire 1 B outLED~7_combout $end
$var wire 1 C outLED[6]~reg0_q $end
$var wire 1 D outLED~6_combout $end
$var wire 1 E outLED[5]~3_combout $end
$var wire 1 F outLED[5]~reg0_q $end
$var wire 1 G outLED~5_combout $end
$var wire 1 H outLED[4]~reg0_q $end
$var wire 1 I outLED~4_combout $end
$var wire 1 J outLED[3]~reg0_q $end
$var wire 1 K outLED~2_combout $end
$var wire 1 L outLED[2]~reg0_q $end
$var wire 1 M outLED~1_combout $end
$var wire 1 N outLED[1]~reg0_q $end
$var wire 1 O outLED~0_combout $end
$var wire 1 P outLED[0]~reg0_q $end
$var wire 1 Q led_flash_divider|counter [1] $end
$var wire 1 R led_flash_divider|counter [0] $end
$upscope $end
$upscope $end
$enddefinitions $end
#0
$dumpvars
0!
1"
0*
1)
0(
0'
0&
0%
0$
0#
0+
1,
x-
1.
1/
10
01
12
03
04
05
06
07
08
09
1:
1;
0<
0=
0>
0?
0@
0A
0B
0C
0D
1E
0F
0G
0H
0I
0J
1K
0L
1M
0N
0O
0P
0R
zQ
$end
#10000
1!
19
#20000
0"
0!
0:
09
1<
#30000
1!
19
1R
1=
0<
0;
1N
1L
13
02
0)
1(
0K
1I
#40000
0!
09
#50000
1!
19
0R
0=
1<
1;
#60000
0!
09
#70000
1!
19
1R
1=
0<
0;
0L
1J
14
03
0(
1'
1G
0I
#80000
0!
09
#90000
1!
19
0R
0=
1<
1;
#100000
0!
09
#110000
1!
19
1R
1=
0<
0;
0J
1H
15
04
0'
1&
1D
0G
#120000
0!
09
#130000
1!
19
0R
0=
1<
1;
#140000
0!
09
#150000
1!
19
1R
1=
0<
0;
0H
1F
16
05
0&
1%
1B
0D
#160000
0!
09
#170000
1!
19
0R
0=
1<
1;
#180000
0!
09
#190000
1!
19
1R
1=
0<
0;
0F
1C
17
06
0%
1$
1@
0B
#200000
0!
09
#210000
1!
19
0R
0=
1<
1;
#220000
0!
09
#230000
1!
19
1R
1=
0<
0;
0C
1A
18
07
0E
0$
1#
1B
0@
1>
#240000
0!
09
#250000
1!
19
0R
0=
1<
1;
#260000
0!
09
#270000
1!
19
1R
1=
0<
0;
1?
1C
0A
08
17
1E
1$
0#
1D
0B
#280000
0!
09
#290000
1!
19
0R
0=
1<
1;
#300000
0!
09
#310000
1!
19
1R
1=
0<
0;
1F
0C
07
16
1%
0$
0D
1G
#320000
0!
09
#330000
1!
19
0R
0=
1<
1;
#340000
0!
09
#350000
1!
19
1R
1=
0<
0;
1H
0F
06
15
1&
0%
0G
1I
#360000
0!
09
#370000
1!
19
0R
0=
1<
1;
#380000
0!
09
#390000
1!
19
1R
1=
0<
0;
1J
0H
05
14
1'
0&
0I
1K
#400000
0!
09
#410000
1!
19
0R
0=
1<
1;
#420000
0!
09
#430000
1!
19
1R
1=
0<
0;
1L
0J
04
13
1(
0'
0K
0M
#440000
0!
09
#450000
1!
19
0R
0=
1<
1;
#460000
0!
09
#470000
1!
19
1R
1=
0<
0;
0N
0L
03
12
1)
0(
1O
1M
#480000
0!
09
#490000
1!
19
0R
0=
1<
1;
#500000
0!
09
#510000
1!
19
1R
1=
0<
0;
1N
1P
11
02
0E
0)
1*
0O
0M
0>
#520000
0!
09
#530000
1!
19
0R
0=
1<
1;
#540000
0!
09
#550000
1!
19
1R
1=
0<
0;
0N
0?
0P
01
12
1E
1)
0*
1M
1K
#560000
0!
09
#570000
1!
19
0R
0=
1<
1;
#580000
0!
09
#590000
1!
19
1R
1=
0<
0;
1N
1L
13
02
0)
1(
0K
1I
#600000
0!
09
#610000
1!
19
0R
0=
1<
1;
#620000
0!
09
#630000
1!
19
1R
1=
0<
0;
0L
1J
14
03
0(
1'
1G
0I
#640000
0!
09
#650000
1!
19
0R
0=
1<
1;
#660000
0!
09
#670000
1!
19
1R
1=
0<
0;
0J
1H
15
04
0'
1&
1D
0G
#680000
0!
09
#690000
1!
19
0R
0=
1<
1;
#700000
0!
09
#710000
1!
19
1R
1=
0<
0;
0H
1F
16
05
0&
1%
1B
0D
#720000
0!
09
#730000
1!
19
0R
0=
1<
1;
#740000
0!
09
#750000
1!
19
1R
1=
0<
0;
0F
1C
17
06
0%
1$
1@
0B
#760000
0!
09
#770000
1!
19
0R
0=
1<
1;
#780000
0!
09
#790000
1!
19
1R
1=
0<
0;
0C
1A
18
07
0E
0$
1#
1B
0@
1>
#800000
0!
09
#810000
1!
19
0R
0=
1<
1;
#820000
0!
09
#830000
1!
19
1R
1=
0<
0;
1?
1C
0A
08
17
1E
1$
0#
1D
0B
#840000
0!
09
#850000
1!
19
0R
0=
1<
1;
#860000
0!
09
#870000
1!
19
1R
1=
0<
0;
1F
0C
07
16
1%
0$
0D
1G
#880000
0!
09
#890000
1!
19
0R
0=
1<
1;
#900000
0!
09
#910000
1!
19
1R
1=
0<
0;
1H
0F
06
15
1&
0%
0G
1I
#920000
0!
09
#930000
1!
19
0R
0=
1<
1;
#940000
0!
09
#950000
1!
19
1R
1=
0<
0;
1J
0H
05
14
1'
0&
0I
1K
#960000
0!
09
#970000
1!
19
0R
0=
1<
1;
#980000
0!
09
#990000
1!
19
1R
1=
0<
0;
1L
0J
04
13
1(
0'
0K
0M
